…
The following sections show the steps involved in the process.

### 1\. Create two datasets: [loanbook](https://2degreesinvesting.github.io/r2dii.dataraw/reference/loanbook_description.html) and [asset-level data (ald)](https://2degreesinvesting.github.io/r2dii.dataraw/reference/ald_description.html)

This step is up to you. You must structure your data like the example
datasets
[`loanbook_demo`](https://2degreesinvesting.github.io/r2dii.dataraw/reference/loanbook_demo.html)
and
[`ald_demo`](https://2degreesinvesting.github.io/r2dii.dataraw/reference/ald_demo.html)
(from the [r2dii.dataraw
package](https://2degreesinvesting.github.io/r2dii.dataraw)).

``` r
loanbook_demo
#> # A tibble: 320 x 19
#>    id_loan id_direct_loant… name_direct_loa… id_intermediate… name_intermedia…
#>    <chr>   <chr>            <chr>            <chr>            <chr>           
#>  1 L1      C294             Yuamen Xinneng … <NA>             <NA>            
#>  2 L2      C293             Yuamen Changyua… <NA>             <NA>            
#>  3 L3      C292             Yuama Ethanol L… IP5              Yuama Inc.      
#>  4 L4      C299             Yudaksel Holdin… <NA>             <NA>            
#>  5 L5      C305             Yukon Energy Co… <NA>             <NA>            
#>  6 L6      C304             Yukon Developme… <NA>             <NA>            
#>  7 L7      C227             Yaugoa-Zapadnay… <NA>             <NA>            
#>  8 L8      C303             Yueyang City Co… <NA>             <NA>            
#>  9 L9      C301             Yuedxiu Corp One IP10             Yuedxiu Group   
#> 10 L10     C302             Yuexi County AA… <NA>             <NA>            
#> # … with 310 more rows, and 14 more variables: id_ultimate_parent <chr>,
#> #   name_ultimate_parent <chr>, loan_size_outstanding <dbl>,
#> #   loan_size_outstanding_currency <chr>, loan_size_credit_limit <dbl>,
#> #   loan_size_credit_limit_currency <chr>, sector_classification_system <chr>,
#> #   sector_classification_input_type <chr>,
#> #   sector_classification_direct_loantaker <dbl>, fi_type <chr>,
#> #   flag_project_finance_loan <chr>, name_project <lgl>,
#> #   lei_direct_loantaker <lgl>, isin_direct_loantaker <lgl>

ald_demo
#> # A tibble: 17,368 x 13
#>    name_company sector technology production_unit  year production
#>    <chr>        <chr>  <chr>      <chr>           <dbl>      <dbl>
#>  1 aba hydropo… power  hydrocap   MW               2013    133340.
#>  2 aba hydropo… power  hydrocap   MW               2014    131582.
#>  3 aba hydropo… power  hydrocap   MW               2015    129824.
#>  4 aba hydropo… power  hydrocap   MW               2016    128065.
#>  5 aba hydropo… power  hydrocap   MW               2017    126307.
#>  6 aba hydropo… power  hydrocap   MW               2018    124549.
#>  7 aba hydropo… power  hydrocap   MW               2019    122790.
#>  8 aba hydropo… power  hydrocap   MW               2020    121032.
#>  9 aba hydropo… power  hydrocap   MW               2021    119274.
#> 10 aba hydropo… power  hydrocap   MW               2022    117515.
#> # … with 17,358 more rows, and 7 more variables: emission_factor <dbl>,
#> #   country_of_domicile <chr>, plant_location <chr>, number_of_assets <dbl>,
#> #   is_ultimate_owner <lgl>, is_ultimate_listed_owner <lgl>,
#> #   ald_timestamp <chr>
```
…
  - Remove special characters.
  - Replace language specific characters.
  - Abbreviate certain names to reduce their importance in the matching.
  - Spell out numbers to increase their importance.

It then scores the similarity between `simpler_name` values in the
prepared loanbook and ald datasets.

``` r
match_name(your_loanbook, your_ald)
#> Uniquifying `id_direct_loantaker` & `id_ultimate_parent`.FALSE
#> Adding new columns `sector` and `borderline`.
#> # A tibble: 833 x 10
#>    simpler_name_x simpler_name_y score level id    name.x sector_x source name.y
#>    <chr>          <chr>          <dbl> <chr> <chr> <chr>  <chr>    <chr>  <chr> 
#>  1 astonmartin    astonmartin    1     ulti… UP23  Aston… automot… loanb… aston…
#>  2 avtozaz        avtozaz        1     ulti… UP25  Avtoz… automot… loanb… avtoz…
#>  3 bogdan         bogdan         1     ulti… UP36  Bogdan automot… loanb… bogdan
#>  4 chauto         chauto         1     ulti… UP52  Ch Au… automot… loanb… ch au…
#>  5 chauto         chtcauto       0.867 ulti… UP52  Ch Au… automot… loanb… chtc …
#>  6 chehejia       chehejia       1     ulti… UP53  Chehe… automot… loanb… chehe…
#>  7 chtcauto       chauto         0.867 ulti… UP58  Chtc … automot… loanb… ch au…
#>  8 chtcauto       chtcauto       1     ulti… UP58  Chtc … automot… loanb… chtc …
#>  9 dongfenghonda  dongfenghonda  1     ulti… UP80  Dongf… automot… loanb… dongf…
#> 10 dongfenghonda  dongfengluxgen 0.867 ulti… UP80  Dongf… automot… loanb… dongf…
#> # … with 823 more rows, and 1 more variable: sector_y <chr>
```

By default, names are compared against ald names in the same sector
(i.e. `by_sector = TRUE`). Use `by_sector = FALSE` removes this
limitation, but it increases the matching run time on large datasets,
and the amount of nonsensical matches.

``` r
match_name(your_loanbook, your_ald, by_sector = FALSE)
#> Uniquifying `id_direct_loantaker` & `id_ultimate_parent`.FALSE
#> Adding new columns `sector` and `borderline`.
#> # A tibble: 1,101 x 10
#>    simpler_name_x simpler_name_y score level id    name.x sector_x source name.y
#>    <chr>          <chr>          <dbl> <chr> <chr> <chr>  <chr>    <chr>  <chr> 
#>  1 abahydropower… abahydropower… 1     ulti… UP1   Aba H… power    loanb… aba h…
#>  2 achinskyglino… achinskyglino… 1     ulti… UP2   Achin… cement   loanb… achin…
#>  3 affinityrenew… affinityrenew… 1     ulti… UP3   Affin… power    loanb… affin…
#>  4 africaoil corp africaoil corp 1     dire… C2    Afric… oil and… loanb… afric…
#>  5 africaoil corp africonshp sa  0.812 dire… C2    Afric… oil and… loanb… afric…
#>  6 africonshp sa  africaoil corp 0.812 ulti… UP4   Afric… shipping loanb… afric…
#>  7 africonshp sa  africonshp sa  1     ulti… UP4   Afric… shipping loanb… afric…
#>  8 agnisteelspri… agnisteelspri… 1     ulti… UP5   Agni … power    loanb… agni …
#>  9 agrenewables   agrenewables   1     ulti… UP6   Agren… power    loanb… agren…
#> 10 airasiaxbhd    airasiaxbhd    1     dire… C3    Airas… aviation loanb… airas…
#> # … with 1,091 more rows, and 1 more variable: sector_y <chr>
```

`min_score` allows you to pick rows at and above some `score`.

``` r
matching_scores <- match_name(your_loanbook, your_ald, min_score = 0.9)
#> Uniquifying `id_direct_loantaker` & `id_ultimate_parent`.FALSE
#> Adding new columns `sector` and `borderline`.

matching_scores
#> # A tibble: 438 x 10
#>    simpler_name_x simpler_name_y score level id    name.x sector_x source name.y
#>    <chr>          <chr>          <dbl> <chr> <chr> <chr>  <chr>    <chr>  <chr> 
#>  1 astonmartin    astonmartin        1 ulti… UP23  Aston… automot… loanb… aston…
#>  2 avtozaz        avtozaz            1 ulti… UP25  Avtoz… automot… loanb… avtoz…
#>  3 bogdan         bogdan             1 ulti… UP36  Bogdan automot… loanb… bogdan
#>  4 chauto         chauto             1 ulti… UP52  Ch Au… automot… loanb… ch au…
#>  5 chehejia       chehejia           1 ulti… UP53  Chehe… automot… loanb… chehe…
#>  6 chtcauto       chtcauto           1 ulti… UP58  Chtc … automot… loanb… chtc …
#>  7 dongfenghonda  dongfenghonda      1 ulti… UP80  Dongf… automot… loanb… dongf…
#>  8 dongfengluxgen dongfengluxgen     1 ulti… UP79  Dongf… automot… loanb… dongf…
#>  9 electricmobil… electricmobil…     1 ulti… UP89  Elect… automot… loanb… elect…
#> 10 faradayfuture  faradayfuture      1 ulti… UP94  Farad… automot… loanb… farad…
#> # … with 428 more rows, and 1 more variable: sector_y <chr>
```
…
