…
> 
> library(r2dii.data)
> library(r2dii.match)
> 
> valid_matches <- match_name(loanbook_demo, ald_demo) %>%
+   # WARNING: Remember to validate matches (see `?prioritize`)
+   prioritize()
> 
> valid_matches %>%
+   join_ald_scenario(
+     ald = ald_demo,
+     scenario = scenario_demo_2020,
+     region_isos = region_isos_demo
+   )
# A tibble: 9,945 x 44
   id_loan id_direct_loant… name_direct_loa… id_intermediate… name_intermedia…
   <chr>   <chr>            <chr>            <chr>            <chr>           
 1 L151    C168             Shaanxi Auto     <NA>             <NA>            
 2 L151    C168             Shaanxi Auto     <NA>             <NA>            
 3 L151    C168             Shaanxi Auto     <NA>             <NA>            
 4 L151    C168             Shaanxi Auto     <NA>             <NA>            
 5 L151    C168             Shaanxi Auto     <NA>             <NA>            
 6 L151    C168             Shaanxi Auto     <NA>             <NA>            
 7 L151    C168             Shaanxi Auto     <NA>             <NA>            
 8 L151    C168             Shaanxi Auto     <NA>             <NA>            
 9 L151    C168             Shaanxi Auto     <NA>             <NA>            
10 L151    C168             Shaanxi Auto     <NA>             <NA>            
# … with 9,935 more rows, and 39 more variables: id_ultimate_parent <chr>,
#   name_ultimate_parent <chr>, loan_size_outstanding <dbl>,
#   loan_size_outstanding_currency <chr>, loan_size_credit_limit <dbl>,
#   loan_size_credit_limit_currency <chr>, sector_classification_system <chr>,
#   sector_classification_input_type <chr>,
#   sector_classification_direct_loantaker <dbl>, fi_type <chr>,
#   flag_project_finance_loan <chr>, name_project <lgl>,
#   lei_direct_loantaker <lgl>, isin_direct_loantaker <lgl>, id_2dii <chr>,
#   level <chr>, sector <chr>, sector_ald <chr>, name <chr>, name_ald <chr>,
…
> 
> library(r2dii.analysis)
> library(r2dii.data)
> library(r2dii.match)
> 
> master <- r2dii.data::loanbook_demo %>%
+   r2dii.match::match_name(r2dii.data::ald_demo) %>%
+   r2dii.match::prioritize() %>%
+   join_ald_scenario(r2dii.data::ald_demo,
+     r2dii.data::scenario_demo_2020,
+     region_isos = region_isos_demo
+   )
> 
> summarize_weighted_production(master)
# A tibble: 138 x 4
   sector     technology  year weighted_production
   <chr>      <chr>      <int>               <dbl>
 1 automotive electric    2020             446804.
 2 automotive electric    2021             452626.
 3 automotive electric    2022             458449.
 4 automotive electric    2023             464271.
 5 automotive electric    2024             470094.
 6 automotive electric    2025             475916.
 7 automotive electric    2026             481739.
 8 automotive hybrid      2020             425303.
 9 automotive hybrid      2021             416061.
10 automotive hybrid      2022             406818.
# … with 128 more rows
> 
> summarize_weighted_production(master, use_credit_limit = TRUE)
# A tibble: 138 x 4
   sector     technology  year weighted_production
   <chr>      <chr>      <int>               <dbl>
 1 automotive electric    2020             422486.
 2 automotive electric    2021             426003.
 3 automotive electric    2022             429520.
 4 automotive electric    2023             433037.
 5 automotive electric    2024             436554.
 6 automotive electric    2025             440071.
 7 automotive electric    2026             443588.
 8 automotive hybrid      2020             388781.
 9 automotive hybrid      2021             387804.
10 automotive hybrid      2022             386827.
# … with 128 more rows
…
> library(r2dii.analysis)
> library(r2dii.data)
> library(r2dii.match)
> 
> match_result <- r2dii.data::loanbook_demo %>%
+   r2dii.match::match_name(r2dii.data::ald_demo) %>%
+   r2dii.match::prioritize()
> 
> # calculate targets at portfolio level
> target_market_share(match_result,
+   ald = r2dii.data::ald_demo,
+   scenario = r2dii.data::scenario_demo_2020,
+   region_isos = r2dii.data::region_isos_demo
+ )
# A tibble: 1,170 x 7
   sector technology  year region scenario_source weighted_produc…
   <chr>  <chr>      <int> <chr>  <chr>           <chr>           
 1 autom… electric    2020 global demo_2020       projected       
 2 autom… electric    2020 global demo_2020       normalized_corp…
 3 autom… electric    2020 global demo_2020       target_cps      
 4 autom… electric    2020 global demo_2020       target_sds      
 5 autom… electric    2020 global demo_2020       target_sps      
 6 autom… hybrid      2020 global demo_2020       projected       
 7 autom… hybrid      2020 global demo_2020       normalized_corp…
 8 autom… hybrid      2020 global demo_2020       target_cps      
 9 autom… hybrid      2020 global demo_2020       target_sds      
10 autom… hybrid      2020 global demo_2020       target_sps      
# … with 1,160 more rows, and 1 more variable: weighted_production_value <dbl>
> 
> # calculate targets at company level
> target_market_share(match_result,
+   ald = r2dii.data::ald_demo,
+   scenario = r2dii.data::scenario_demo_2020,
+   region_isos = r2dii.data::region_isos_demo,
+   by_company = TRUE
+ )
# A tibble: 15,945 x 8
   sector technology  year region scenario_source name_ald weighted_produc…
   <chr>  <chr>      <int> <chr>  <chr>           <chr>    <chr>           
 1 autom… electric    2020 global demo_2020       shangha… projected       
 2 autom… electric    2020 global demo_2020       shangha… normalized_corp…
 3 autom… electric    2020 global demo_2020       shangha… target_cps      
 4 autom… electric    2020 global demo_2020       shangha… target_sds      
 5 autom… electric    2020 global demo_2020       shangha… target_sps      
 6 autom… electric    2020 global demo_2020       sichuan… projected       
 7 autom… electric    2020 global demo_2020       sichuan… normalized_corp…
 8 autom… electric    2020 global demo_2020       sichuan… target_cps      
 9 autom… electric    2020 global demo_2020       sichuan… target_sds      
10 autom… electric    2020 global demo_2020       sichuan… target_sps      
# … with 15,935 more rows, and 1 more variable: weighted_production_value <dbl>
…
> valid_matches <- match_name(loanbook_demo, ald_demo) %>%
+   # WARNING: Remember to validate matches (see `?prioritize`)
+   prioritize()
> 
> out <- valid_matches %>%
+   target_sda(
+     ald = ald_demo,
+     co2_intensity_scenario = co2_intensity_scenario_demo
+   )
> 
> # The output includes the portfolio's actual projected emissions factors, the
> # scenario pathway emissions factors, and the portfolio's target emissions
> # factors.
> out
# A tibble: 28 x 4
   sector  year emission_factor_metric emission_factor_value
   <chr>  <dbl> <chr>                                  <dbl>
 1 cement  2020 projected                              0.664
 2 cement  2020 target                                 0.669
 3 cement  2020 scenario_benchmark                     0.7  
 4 cement  2021 projected                              0.665
 5 cement  2021 target                                 0.612
 6 cement  2021 scenario_benchmark                     0.64 
 7 cement  2022 projected                              0.666
 8 cement  2022 target                                 0.555
 9 cement  2022 scenario_benchmark                     0.580
10 cement  2023 projected                              0.667
# … with 18 more rows
…
