…
> cleanEx()
> nameEx("market_share")
> ### * market_share
> 
> flush(stderr()); flush(stdout())
> 
> ### Name: market_share
> ### Title: An example of a 'market_share'-like dataset
> ### Aliases: market_share
> ### Keywords: datasets
> 
> ### ** Examples
> 
> market_share
# A tibble: 1,170 × 8
   sector     technology  year region scenario_source metric          production
   <chr>      <chr>      <int> <chr>  <chr>           <chr>                <dbl>
 1 automotive electric    2020 global demo_2020       projected          145942.
 2 automotive electric    2020 global demo_2020       corporate_econ…   8134869.
 3 automotive electric    2020 global demo_2020       target_cps         145942.
 4 automotive electric    2020 global demo_2020       target_sds         145942.
 5 automotive electric    2020 global demo_2020       target_sps         145942.
 6 automotive electric    2021 global demo_2020       projected          148212.
 7 automotive electric    2021 global demo_2020       corporate_econ…   8183411.
 8 automotive electric    2021 global demo_2020       target_cps         148361.
 9 automotive electric    2021 global demo_2020       target_sds         160625.
10 automotive electric    2021 global demo_2020       target_sps         149016.
# … with 1,160 more rows, and 1 more variable: technology_share <dbl>
…
> nameEx("sda")
> ### * sda
> 
> flush(stderr()); flush(stdout())
> 
> ### Name: sda
> ### Title: An example of an 'sda'-like dataset
> ### Aliases: sda
> ### Keywords: datasets
> 
> ### ** Examples
> 
> sda
# A tibble: 208 × 4
   sector      year emission_factor_metric emission_factor_value
   <chr>      <dbl> <chr>                                  <dbl>
 1 automotive  2002 projected                              0.228
 2 automotive  2003 projected                              0.226
 3 automotive  2004 projected                              0.224
 4 automotive  2005 projected                              0.222
 5 automotive  2006 projected                              0.220
 6 automotive  2007 projected                              0.218
 7 automotive  2008 projected                              0.216
 8 automotive  2009 projected                              0.214
 9 automotive  2010 projected                              0.212
10 automotive  2011 projected                              0.210
# … with 198 more rows
…
