Using `match_name()` with large loanbooks • r2dii.match
…
You can read and combine all files in one step with
vroom().

matched <- vroom(dir_ls(out))
#> Rows: 326 Columns: 23
#> ── Column specification ────────────────────────────────────────────────────────
#> Delimiter: "\t"
#> chr (17): id_loan, id_direct_loantaker, name_direct_loantaker, id_ultimate_p...
#> dbl  (4): loan_size_outstanding, loan_size_credit_limit, chunk, score
#> lgl  (2): isin_direct_loantaker, borderline
#> 
#> ℹ Use `spec()` to retrieve the full column specification for this data.
#> ℹ Specify the column types or set `show_col_types = FALSE` to quiet this message.
matched
#> # A tibble: 326 × 23
#>    id_loan id_direct_loantaker name_direct_loantaker       id_ultimate_parent
#>    <chr>   <chr>               <chr>                       <chr>             
#>  1 L1      C294                Vitale Group                UP15              
#>  2 L3      C292                Rowe-Rowe                   UP288             
#>  3 L5      C305                Ring AG & Co. KGaA          UP104             
#>  4 L6      C304                Kassulke-Kassulke           UP83              
#>  5 L6      C304                Kassulke-Kassulke           UP83              
#>  6 L7      C227                Morissette Group            UP134             
#>  7 L7      C227                Morissette Group            UP134             
#>  8 L8      C303                Barone s.r.l.               UP163             
#>  9 L9      C301                Werner Werner AG & Co. KGaA UP138             
#> 10 L9      C301                Werner Werner AG & Co. KGaA UP138             
#> # ℹ 316 more rows
#> # ℹ 19 more variables: name_ultimate_parent <chr>, loan_size_outstanding <dbl>,
#> #   loan_size_outstanding_currency <chr>, loan_size_credit_limit <dbl>,
#> #   loan_size_credit_limit_currency <chr>, sector_classification_system <chr>,
#> #   sector_classification_direct_loantaker <chr>, lei_direct_loantaker <chr>,
#> #   isin_direct_loantaker <lgl>, chunk <dbl>, id_2dii <chr>, level <chr>,
#> #   sector <chr>, sector_abcd <chr>, name <chr>, name_abcd <chr>, …
…
