Introduction to r2dii.match • r2dii.match
…
sector_classifications$code_system %>%
  unique()
#> [1] "CNB"   "GICS"  "ISIC"  "NACE"  "NAICS" "PSIC"  "SIC"

If you would like to use a different classification system, please
raise an issue in r2dii.data and we can
incorporate it.

loanbook_demo
#> # A tibble: 321 × 19
#>    id_loan id_direct_l…¹ name_…² id_in…³ name_…⁴ id_ul…⁵ name_…⁶ loan_…⁷ loan_…⁸
#>    <chr>   <chr>         <chr>   <chr>   <chr>   <chr>   <chr>     <dbl> <chr>  
#>  1 L1      C294          Yuamen… NA      NA      UP15    Alpine…  225625 EUR    
#>  2 L2      C293          Yuamen… NA      NA      UP84    Eco Wa…  301721 EUR    
#>  3 L3      C292          Yuama … IP5     Yuama … UP288   Univer…  410297 EUR    
#>  4 L4      C299          Yudaks… NA      NA      UP54    China …  233049 EUR    
#>  5 L5      C305          Yukon … NA      NA      UP104   Garlan…  406585 EUR    
#>  6 L6      C304          Yukon … NA      NA      UP83    Earthp…  185721 EUR    
#>  7 L7      C227          Yaugoa… NA      NA      UP134   Ineos …  184793 EUR    
#>  8 L8      C303          Yueyan… NA      NA      UP163   Kraftw…  291513 EUR    
#>  9 L9      C301          Yuedxi… IP10    Yuedxi… UP138   Jai Bh…  407513 EUR    
#> 10 L10     C302          Yuexi … NA      NA      UP32    Bhagwa…  186649 EUR    
#> # … with 311 more rows, 10 more variables: loan_size_credit_limit <dbl>,
#> #   loan_size_credit_limit_currency <chr>, sector_classification_system <chr>,
#> #   sector_classification_input_type <chr>,
#> #   sector_classification_direct_loantaker <dbl>, fi_type <chr>,
#> #   flag_project_finance_loan <chr>, name_project <lgl>,
#> #   lei_direct_loantaker <lgl>, isin_direct_loantaker <lgl>, and abbreviated
#> #   variable names ¹​id_direct_loantaker, ²​name_direct_loantaker, …

abcd_demo
#> # A tibble: 17,668 × 14
#>    company_id name_…¹ lei   sector techn…² produ…³  year produ…⁴ emiss…⁵ count…⁶
#>    <chr>      <chr>   <chr> <chr>  <chr>   <chr>   <int>   <dbl>   <dbl> <chr>  
#>  1 1          aba hy… 8360… power  hydroc… MW       2013 133340.      NA DM     
#>  2 1          aba hy… 8360… power  hydroc… MW       2014 131582.      NA DM     
#>  3 1          aba hy… 8360… power  hydroc… MW       2015 129824.      NA DM     
#>  4 1          aba hy… 8360… power  hydroc… MW       2016 128065.      NA DM     
#>  5 1          aba hy… 8360… power  hydroc… MW       2017 126307.      NA DM     
#>  6 1          aba hy… 8360… power  hydroc… MW       2018 124549.      NA DM     
#>  7 1          aba hy… 8360… power  hydroc… MW       2019 122790.      NA DM     
#>  8 1          aba hy… 8360… power  hydroc… MW       2020 121032.      NA DM     
#>  9 1          aba hy… 8360… power  hydroc… MW       2021 119274.      NA DM     
#> 10 1          aba hy… 8360… power  hydroc… MW       2022 117515.      NA DM     
#> # … with 17,658 more rows, 4 more variables: plant_location <chr>,
#> #   is_ultimate_owner <lgl>, abcd_timestamp <chr>, emission_factor_unit <chr>,
#> #   and abbreviated variable names ¹​name_company, ²​technology,
#> #   ³​production_unit, ⁴​production, ⁵​emission_factor, ⁶​country_of_domicile
…
Replace language specific characters.

Abbreviate certain names to reduce their importance in the
matching.

Removing corporate suffixes when necessary.

Spell out numbers to increase their importance.

The similarity is then scored between the internally-transformed
names of the loanbook against the abcd. (For more information on the
scoring algorithm used, see: stringdist::stringsim()).

match_name(your_loanbook, your_abcd)
#> # A tibble: 410 × 28
#>    id_loan id_direct_l…¹ name_…² id_in…³ name_…⁴ id_ul…⁵ name_…⁶ loan_…⁷ loan_…⁸
#>    <chr>   <chr>         <chr>   <chr>   <chr>   <chr>   <chr>     <dbl> <chr>  
#>  1 L1      C294          Yuamen… NA      NA      UP15    Alpine…  225625 EUR    
#>  2 L3      C292          Yuama … IP5     Yuama … UP288   Univer…  410297 EUR    
#>  3 L3      C292          Yuama … IP5     Yuama … UP288   Univer…  410297 EUR    
#>  4 L5      C305          Yukon … NA      NA      UP104   Garlan…  406585 EUR    
#>  5 L5      C305          Yukon … NA      NA      UP104   Garlan…  406585 EUR    
#>  6 L6      C304          Yukon … NA      NA      UP83    Earthp…  185721 EUR    
#>  7 L6      C304          Yukon … NA      NA      UP83    Earthp…  185721 EUR    
#>  8 L8      C303          Yueyan… NA      NA      UP163   Kraftw…  291513 EUR    
#>  9 L9      C301          Yuedxi… IP10    Yuedxi… UP138   Jai Bh…  407513 EUR    
#> 10 L10     C302          Yuexi … NA      NA      UP32    Bhagwa…  186649 EUR    
#> # … with 400 more rows, 19 more variables: loan_size_credit_limit <dbl>,
#> #   loan_size_credit_limit_currency <chr>, sector_classification_system <chr>,
#> #   sector_classification_input_type <chr>,
#> #   sector_classification_direct_loantaker <dbl>, fi_type <chr>,
#> #   flag_project_finance_loan <chr>, name_project <lgl>,
#> #   lei_direct_loantaker <lgl>, isin_direct_loantaker <lgl>, id_2dii <chr>,
#> #   level <chr>, sector <chr>, sector_abcd <chr>, name <chr>, …
…
# Pretend we validated the matched dataset
valid_matches <- matched

some_interesting_columns <- c("id_2dii", "level", "score")

valid_matches %>%
  prioritize() %>%
  select(all_of(some_interesting_columns))
#> # A tibble: 216 × 3
#>    id_2dii level            score
#>    <chr>   <chr>            <dbl>
#>  1 DL294   direct_loantaker     1
#>  2 DL304   direct_loantaker     1
#>  3 DL297   direct_loantaker     1
#>  4 DL287   direct_loantaker     1
#>  5 DL286   direct_loantaker     1
#>  6 DL285   direct_loantaker     1
#>  7 DL283   direct_loantaker     1
#>  8 DL282   direct_loantaker     1
#>  9 DL281   direct_loantaker     1
#> 10 DL280   direct_loantaker     1
#> # … with 206 more rows
By default, highest priority refers to the most granular match
(direct_loantaker). The default priority is set internally
via prioritize_levels().

prioritize_level(matched)
#> [1] "direct_loantaker"      "intermediate_parent_1" "ultimate_parent"

You may use a different priority. One way to do that is to pass a
function to priority. For example, use rev to
reverse the default priority.

matched %>%
  prioritize(priority = rev) %>%
  select(all_of(some_interesting_columns))
#> # A tibble: 216 × 3
#>    id_2dii level           score
#>    <chr>   <chr>           <dbl>
#>  1 UP288   ultimate_parent     1
#>  2 UP104   ultimate_parent     1
#>  3 UP83    ultimate_parent     1
#>  4 UP163   ultimate_parent     1
#>  5 UP138   ultimate_parent     1
#>  6 UP32    ultimate_parent     1
#>  7 UP81    ultimate_parent     1
#>  8 UP269   ultimate_parent     1
#>  9 UP69    ultimate_parent     1
#> 10 UP3     ultimate_parent     1
#> # … with 206 more rows
…
