Replace customer names — replace_customer_name • r2dii.match
…
neutral_replacement <- tibble(from = character(0), to = character(0))
replace_customer_name("Company Name Owner", from_to = neutral_replacement)
#> [1] "companynameowner"
replace_customer_name(
  "Company Name Owner",
  from_to = neutral_replacement,
  ownership = "owner",
  remove_ownership = TRUE
)
#> [1] "companyname"

get_replacements()
#> # A tibble: 61 x 2
#>    from    to   
#>    <chr>   <chr>
#>  1 " and " " & "
#>  2 " en "  " & "
#>  3 " och " " & "
#>  4 " und " " & "
#>  5 (pjsc)  ""   
#>  6 (pte)   ""   
#>  7 (pvt)   ""   
#>  8 0       null 
#>  9 1       one  
#> 10 2       two  
#> # … with 51 more rows

append_replacements <- get_replacements() %>%
  add_row(
    .before = 1,
    from = c("AA", "BB"), to = c("alpha", "beta")
  )
append_replacements
#> # A tibble: 63 x 2
#>    from    to   
#>    <chr>   <chr>
#>  1 AA      alpha
#>  2 BB      beta 
#>  3 " and " " & "
#>  4 " en "  " & "
#>  5 " och " " & "
#>  6 " und " " & "
#>  7 (pjsc)  ""   
#>  8 (pte)   ""   
#>  9 (pvt)   ""   
#> 10 0       null 
#> # … with 53 more rows
…
