Restructure loanbook dataset (lbk) in preparation for fuzzy matching — restructure_loanbook_for_matching • r2dii.match
…
    Examples

library(r2dii.dataraw)

loanbook_demo %>%
  restructure_loanbook_for_matching()
#> Uniquifying `id_direct_loantaker` & `id_ultimate_parent`.FALSE
#> Adding new columns `sector` and `borderline`.
#> # A tibble: 638 x 6
#>    level       id    name                        sector source alias            
#>    <chr>       <chr> <chr>                       <chr>  <chr>  <chr>            
#>  1 direct_loa… C294  Yuamen Xinneng Thermal Pow… power  loanb… yuamenxinnengthe…
#>  2 ultimate_p… UP15  Alpine Knits India Pvt. Li… power  loanb… alpineknitsindia…
#>  3 direct_loa… C293  Yuamen Changyuan Hydropowe… power  loanb… yuamenchangyuanh…
#>  4 ultimate_p… UP84  Eco Wave Power              power  loanb… ecowavepower     
#>  5 direct_loa… C292  Yuama Ethanol Llc           power  loanb… yuamaethanol llc 
#>  6 ultimate_p… UP288 University Of Iowa          power  loanb… universityofiowa 
#>  7 direct_loa… C299  Yudaksel Holding A.S        power  loanb… yudakselhldgs as 
#>  8 ultimate_p… UP54  China Electric Power (Fuji… power  loanb… chinaelectricpow…
#>  9 direct_loa… C305  Yukon Energy Corp 1736      power  loanb… yukonenergycorpo…
#> 10 ultimate_p… UP104 Garland Power & Light       power  loanb… garlandpowerlight
#> # … with 628 more rows

loanbook_demo %>%
  restructure_loanbook_for_matching(overwrite = overwrite_demo)
#> Uniquifying `id_direct_loantaker` & `id_ultimate_parent`.FALSE
#> Adding new columns `sector` and `borderline`.
#> # A tibble: 638 x 6
#>    level       id    name                        sector source alias            
#>    <chr>       <chr> <chr>                       <chr>  <chr>  <chr>            
#>  1 direct_loa… C294  yuamen power company        coal   manual yuamenpower co   
#>  2 ultimate_p… UP15  alpine india                power  manual alpineindia      
#>  3 direct_loa… C293  Yuamen Changyuan Hydropowe… power  loanb… yuamenchangyuanh…
#>  4 ultimate_p… UP84  Eco Wave Power              power  loanb… ecowavepower     
#>  5 direct_loa… C292  Yuama Ethanol Llc           power  loanb… yuamaethanol llc 
#>  6 ultimate_p… UP288 University Of Iowa          power  loanb… universityofiowa 
#>  7 direct_loa… C299  Yudaksel Holding A.S        power  loanb… yudakselhldgs as 
#>  8 ultimate_p… UP54  China Electric Power (Fuji… power  loanb… chinaelectricpow…
#>  9 direct_loa… C305  Yukon Energy Corp 1736      power  loanb… yukonenergycorpo…
#> 10 ultimate_p… UP104 Garland Power & Light       power  loanb… garlandpowerlight
#> # … with 628 more rows
…
