Restructure an asset-level dataset (ald) in preparation for fuzzy matching — restructure_ald_for_matching • r2dii.match
…
    Examples

library(r2dii.dataraw)

ald_demo %>%
  restructure_ald_for_matching()
#> # A tibble: 591 x 3
#>    name                             sector   alias                        
#>    <chr>                            <chr>    <chr>                        
#>  1 aba hydropower generation co ltd power    abahydropowergenco ltd       
#>  2 achinsky glinoziemskij kombinat  cement   achinskyglinoziemskijkombinat
#>  3 affinity renewables inc.         power    affinityrenewables inc       
#>  4 africa oil corp                  oil&gas  africaoil corp               
#>  5 africon shipping sa              shipping africonshp sa                
#>  6 agni steels private limited      power    agnisteelsprivate ltd        
#>  7 agrenewables                     power    agrenewables                 
#>  8 airasia x bhd                    aviation airasiaxbhd                  
#>  9 airbaltic                        aviation airbaltic                    
#> 10 airblue                          aviation airblue                      
#> # … with 581 more rows
…
