…
    See also

    r2dii.dataraw::loanbook_description,
r2dii.dataraw::loanbook_demo.

Other internal-ish: 
bridge_sector(),
replace_customer_name(),
string_similarity()

    Examples

r2dii.dataraw::loanbook_demo %>%
  uniquify_id_column(id_column = "id_direct_loantaker", prefix = "C")
#> # A tibble: 320 x 19
#>    id_loan id_direct_loant… name_direct_loa… id_intermediate… name_intermedia…
#>    <chr>   <chr>            <chr>            <chr>            <chr>           
#>  1 L1      C294             Yuamen Xinneng … <NA>             <NA>            
#>  2 L2      C293             Yuamen Changyua… <NA>             <NA>            
#>  3 L3      C292             Yuama Ethanol L… IP5              Yuama Inc.      
#>  4 L4      C299             Yudaksel Holdin… <NA>             <NA>            
#>  5 L5      C305             Yukon Energy Co… <NA>             <NA>            
#>  6 L6      C304             Yukon Developme… <NA>             <NA>            
#>  7 L7      C227             Yaugoa-Zapadnay… <NA>             <NA>            
#>  8 L8      C303             Yueyang City Co… <NA>             <NA>            
#>  9 L9      C301             Yuedxiu Corp One IP10             Yuedxiu Group   
#> 10 L10     C302             Yuexi County AA… <NA>             <NA>            
#> # … with 310 more rows, and 14 more variables: id_ultimate_parent <chr>,
#> #   name_ultimate_parent <chr>, loan_size_outstanding <dbl>,
#> #   loan_size_outstanding_currency <chr>, loan_size_credit_limit <dbl>,
#> #   loan_size_credit_limit_currency <chr>, sector_classification_system <chr>,
#> #   sector_classification_input_type <chr>,
#> #   sector_classification_direct_loantaker <dbl>, fi_type <chr>,
#> #   flag_project_finance_loan <chr>, name_project <lgl>,
#> #   lei_direct_loantaker <lgl>, isin_direct_loantaker <lgl>

r2dii.dataraw::loanbook_demo %>%
  uniquify_id_column(id_column = "id_ultimate_parent", prefix = "UP")
#> # A tibble: 320 x 19
#>    id_loan id_direct_loant… name_direct_loa… id_intermediate… name_intermedia…
#>    <chr>   <chr>            <chr>            <chr>            <chr>           
#>  1 L1      C294             Yuamen Xinneng … <NA>             <NA>            
#>  2 L2      C293             Yuamen Changyua… <NA>             <NA>            
#>  3 L3      C292             Yuama Ethanol L… IP5              Yuama Inc.      
#>  4 L4      C299             Yudaksel Holdin… <NA>             <NA>            
#>  5 L5      C305             Yukon Energy Co… <NA>             <NA>            
#>  6 L6      C304             Yukon Developme… <NA>             <NA>            
#>  7 L7      C227             Yaugoa-Zapadnay… <NA>             <NA>            
#>  8 L8      C303             Yueyang City Co… <NA>             <NA>            
#>  9 L9      C301             Yuedxiu Corp One IP10             Yuedxiu Group   
#> 10 L10     C302             Yuexi County AA… <NA>             <NA>            
#> # … with 310 more rows, and 14 more variables: id_ultimate_parent <chr>,
#> #   name_ultimate_parent <chr>, loan_size_outstanding <dbl>,
#> #   loan_size_outstanding_currency <chr>, loan_size_credit_limit <dbl>,
#> #   loan_size_credit_limit_currency <chr>, sector_classification_system <chr>,
#> #   sector_classification_input_type <chr>,
#> #   sector_classification_direct_loantaker <dbl>, fi_type <chr>,
#> #   flag_project_finance_loan <chr>, name_project <lgl>,
#> #   lei_direct_loantaker <lgl>, isin_direct_loantaker <lgl>
…
