…
> 
> library(r2dii.data)
> library(r2dii.match)
> 
> valid_matches <- match_name(loanbook_demo, ald_demo) %>%
+   # WARNING: Remember to validate matches (see `?prioritize`)
+   prioritize()
> 
> valid_matches %>%
+   join_ald_scenario(
+     ald = ald_demo,
+     scenario = scenario_demo_2020,
+     region_isos = region_isos_demo
+   )
# A tibble: 9,735 x 44
   id_loan id_direct_loant… name_direct_loa… id_intermediate… name_intermedia…
   <chr>   <chr>            <chr>            <chr>            <chr>           
 1 L6      C304             Yukon Developme… <NA>             <NA>            
 2 L6      C304             Yukon Developme… <NA>             <NA>            
 3 L6      C304             Yukon Developme… <NA>             <NA>            
 4 L6      C304             Yukon Developme… <NA>             <NA>            
 5 L6      C304             Yukon Developme… <NA>             <NA>            
 6 L6      C304             Yukon Developme… <NA>             <NA>            
 7 L6      C304             Yukon Developme… <NA>             <NA>            
 8 L6      C304             Yukon Developme… <NA>             <NA>            
 9 L6      C304             Yukon Developme… <NA>             <NA>            
10 L6      C304             Yukon Developme… <NA>             <NA>            
# … with 9,725 more rows, and 39 more variables: id_ultimate_parent <chr>,
#   name_ultimate_parent <chr>, loan_size_outstanding <dbl>,
#   loan_size_outstanding_currency <chr>, loan_size_credit_limit <dbl>,
#   loan_size_credit_limit_currency <chr>, sector_classification_system <chr>,
#   sector_classification_input_type <chr>,
#   sector_classification_direct_loantaker <dbl>, fi_type <chr>,
#   flag_project_finance_loan <chr>, name_project <lgl>,
#   lei_direct_loantaker <lgl>, isin_direct_loantaker <lgl>, id_2dii <chr>,
#   level <chr>, sector <chr>, sector_ald <chr>, name <chr>, name_ald <chr>,
…
> 
> library(r2dii.data)
> library(r2dii.match)
> 
> master <- loanbook_demo %>%
+   match_name(ald_demo) %>%
+   prioritize() %>%
+   join_ald_scenario(
+     ald = ald_demo,
+     scenario = scenario_demo_2020,
+     region_isos = region_isos_demo
+   )
> 
> summarize_weighted_production(master)
# A tibble: 138 x 5
   sector_ald technology  year weighted_production weighted_technology_share
   <chr>      <chr>      <int>               <dbl>                     <dbl>
 1 automotive electric    2020             437827.                    0.548 
 2 automotive electric    2021             444635.                    0.548 
 3 automotive electric    2022             451443.                    0.548 
 4 automotive electric    2023             458252.                    0.547 
 5 automotive electric    2024             465060.                    0.547 
 6 automotive electric    2025             471868.                    0.547 
 7 automotive electric    2026             478676.                    0.547 
 8 automotive hybrid      2020             425303.                    0.0973
 9 automotive hybrid      2021             416061.                    0.0971
10 automotive hybrid      2022             406818.                    0.0970
# … with 128 more rows
> 
> summarize_weighted_production(master, use_credit_limit = TRUE)
# A tibble: 138 x 5
   sector_ald technology  year weighted_production weighted_technology_share
   <chr>      <chr>      <int>               <dbl>                     <dbl>
 1 automotive electric    2020             409532.                    0.540 
 2 automotive electric    2021             414472.                    0.540 
 3 automotive electric    2022             419411.                    0.539 
 4 automotive electric    2023             424350.                    0.539 
 5 automotive electric    2024             429290.                    0.538 
 6 automotive electric    2025             434229.                    0.538 
 7 automotive electric    2026             439168.                    0.537 
 8 automotive hybrid      2020             388781.                    0.0997
 9 automotive hybrid      2021             387804.                    0.100 
10 automotive hybrid      2022             386827.                    0.101 
# … with 128 more rows
> 
> summarize_weighted_percent_change(master)
# A tibble: 138 x 4
   sector_ald technology  year weighted_percent_change
   <chr>      <chr>      <int>                   <dbl>
 1 automotive electric    2020                0       
 2 automotive electric    2021                0.000102
 3 automotive electric    2022                0.000205
 4 automotive electric    2023                0.000307
 5 automotive electric    2024                0.000409
 6 automotive electric    2025                0.000512
 7 automotive electric    2026                0.000614
 8 automotive hybrid      2020                0.00576 
 9 automotive hybrid      2021                0.00547 
10 automotive hybrid      2022                0.00518 
# … with 128 more rows
> 
> summarize_weighted_percent_change(master, use_credit_limit = TRUE)
# A tibble: 138 x 4
   sector_ald technology  year weighted_percent_change
   <chr>      <chr>      <int>                   <dbl>
 1 automotive electric    2020               0        
 2 automotive electric    2021               0.0000743
 3 automotive electric    2022               0.000149 
 4 automotive electric    2023               0.000223 
 5 automotive electric    2024               0.000297 
 6 automotive electric    2025               0.000371 
 7 automotive electric    2026               0.000446 
 8 automotive hybrid      2020               0.00540  
 9 automotive hybrid      2021               0.00537  
10 automotive hybrid      2022               0.00534  
# … with 128 more rows
…
> library(r2dii.data)
> library(r2dii.match)
> 
> matched <- loanbook_demo %>%
+   match_name(ald_demo) %>%
+   prioritize()
> 
> # Calculate targets at portfolio level
> matched %>%
+   target_market_share(
+     ald = ald_demo,
+     scenario = scenario_demo_2020,
+     region_isos = region_isos_demo
+   )
# A tibble: 1,170 x 8
   sector technology  year region scenario_source metric production
   <chr>  <chr>      <int> <chr>  <chr>           <chr>       <dbl>
 1 autom… electric    2020 global demo_2020       proje…    145942.
 2 autom… electric    2020 global demo_2020       corpo…   8134869.
 3 autom… electric    2020 global demo_2020       targe…    145942.
 4 autom… electric    2020 global demo_2020       targe…    145942.
 5 autom… electric    2020 global demo_2020       targe…    145942.
 6 autom… electric    2021 global demo_2020       proje…    148212.
 7 autom… electric    2021 global demo_2020       corpo…   8183411.
 8 autom… electric    2021 global demo_2020       targe…    148361.
 9 autom… electric    2021 global demo_2020       targe…    160625.
10 autom… electric    2021 global demo_2020       targe…    149016.
# … with 1,160 more rows, and 1 more variable: technology_share <dbl>
> 
> # Calculate targets at company level
> matched %>%
+   target_market_share(
+     ald = ald_demo,
+     scenario = scenario_demo_2020,
+     region_isos = region_isos_demo,
+     by_company = TRUE
+   )
Warning: You've supplied `by_company = TRUE` and `weight_production = TRUE`.
This will result in company-level results, weighted by the portfolio
loan size, which is rarely useful. Did you mean to set one of these
arguments to `FALSE`?
# A tibble: 15,945 x 9
   sector technology  year region scenario_source name_ald metric production
   <chr>  <chr>      <int> <chr>  <chr>           <chr>    <chr>       <dbl>
 1 autom… electric    2020 global demo_2020       shangha… proje…      5140.
 2 autom… electric    2020 global demo_2020       shangha… corpo…   8134869.
 3 autom… electric    2020 global demo_2020       shangha… targe…      5140.
 4 autom… electric    2020 global demo_2020       shangha… targe…      5140.
 5 autom… electric    2020 global demo_2020       shangha… targe…      5140.
 6 autom… electric    2020 global demo_2020       sichuan… proje…      2992.
 7 autom… electric    2020 global demo_2020       sichuan… corpo…   8134869.
 8 autom… electric    2020 global demo_2020       sichuan… targe…      2992.
 9 autom… electric    2020 global demo_2020       sichuan… targe…      2992.
10 autom… electric    2020 global demo_2020       sichuan… targe…      2992.
# … with 15,935 more rows, and 1 more variable: technology_share <dbl>
> 
> matched %>%
+   target_market_share(
+     ald = ald_demo,
+     scenario = scenario_demo_2020,
+     region_isos = region_isos_demo,
+     # Calculate unweighted targets
+     weight_production = FALSE
+   )
# A tibble: 1,170 x 8
   sector technology  year region scenario_source metric production
   <chr>  <chr>      <int> <chr>  <chr>           <chr>       <dbl>
 1 autom… electric    2020 global demo_2020       proje…   6630404.
 2 autom… electric    2020 global demo_2020       corpo…   8134869.
 3 autom… electric    2020 global demo_2020       targe…   6630404.
 4 autom… electric    2020 global demo_2020       targe…   6630404.
 5 autom… electric    2020 global demo_2020       targe…   6630404.
 6 autom… electric    2021 global demo_2020       proje…   6731628.
 7 autom… electric    2021 global demo_2020       corpo…   8183411.
 8 autom… electric    2021 global demo_2020       targe…   6743979.
 9 autom… electric    2021 global demo_2020       targe…   7319707.
10 autom… electric    2021 global demo_2020       targe…   6774698.
# … with 1,160 more rows, and 1 more variable: technology_share <dbl>
…
> 
> # Example datasets from r2dii.data
> loanbook <- loanbook_demo
> ald <- ald_demo
> co2_scenario <- co2_intensity_scenario_demo
> 
> # WARNING: Remember to validate matches (see `?prioritize`)
> matched <- prioritize(match_name(loanbook, ald))
> 
> # You may need to clean your data
> anyNA(ald$emission_factor)
[1] TRUE
> try(target_sda(matched, ald, co2_intensity_scenario = co2_scenario))
Warning: Removing ald rows where `emission_factor` is NA
# A tibble: 208 x 4
   sector      year emission_factor_metric emission_factor_value
   <chr>      <dbl> <chr>                                  <dbl>
 1 automotive  2002 projected                              0.228
 2 automotive  2003 projected                              0.226
 3 automotive  2004 projected                              0.224
 4 automotive  2005 projected                              0.222
 5 automotive  2006 projected                              0.220
 6 automotive  2007 projected                              0.218
 7 automotive  2008 projected                              0.216
 8 automotive  2009 projected                              0.214
 9 automotive  2010 projected                              0.212
10 automotive  2011 projected                              0.210
# … with 198 more rows
> 
> ald2 <- subset(ald, !is.na(emission_factor))
> anyNA(ald2$emission_factor)
[1] FALSE
> 
> out <- target_sda(matched, ald2, co2_intensity_scenario = co2_scenario)
> 
> # The output includes the portfolio's actual projected emissions factors, the
> # scenario pathway emissions factors, and the portfolio's target emissions
> # factors.
> out
# A tibble: 208 x 4
   sector      year emission_factor_metric emission_factor_value
   <chr>      <dbl> <chr>                                  <dbl>
 1 automotive  2002 projected                              0.228
 2 automotive  2003 projected                              0.226
 3 automotive  2004 projected                              0.224
 4 automotive  2005 projected                              0.222
 5 automotive  2006 projected                              0.220
 6 automotive  2007 projected                              0.218
 7 automotive  2008 projected                              0.216
 8 automotive  2009 projected                              0.214
 9 automotive  2010 projected                              0.212
10 automotive  2011 projected                              0.210
# … with 198 more rows
> 
> # Split-view by metric
> split(out, out$emission_factor_metric)
$adjusted_scenario_demo
# A tibble: 22 x 4
   sector  year emission_factor_metric emission_factor_value
   <chr>  <dbl> <chr>                                  <dbl>
 1 cement  2020 adjusted_scenario_demo                 0.661
 2 steel   2020 adjusted_scenario_demo                 0.262
 3 cement  2021 adjusted_scenario_demo                 0.605
 4 steel   2021 adjusted_scenario_demo                 0.249
 5 cement  2022 adjusted_scenario_demo                 0.548
 6 steel   2022 adjusted_scenario_demo                 0.236
 7 cement  2023 adjusted_scenario_demo                 0.491
 8 steel   2023 adjusted_scenario_demo                 0.222
 9 cement  2024 adjusted_scenario_demo                 0.435
10 steel   2024 adjusted_scenario_demo                 0.209
# … with 12 more rows

$corporate_economy
# A tibble: 103 x 4
   sector      year emission_factor_metric emission_factor_value
   <chr>      <dbl> <chr>                                  <dbl>
 1 automotive  2002 corporate_economy                      0.236
 2 automotive  2003 corporate_economy                      0.237
 3 automotive  2004 corporate_economy                      0.238
 4 automotive  2005 corporate_economy                      0.240
 5 automotive  2006 corporate_economy                      0.241
 6 automotive  2007 corporate_economy                      0.242
 7 automotive  2008 corporate_economy                      0.244
 8 automotive  2009 corporate_economy                      0.245
 9 automotive  2010 corporate_economy                      0.247
10 automotive  2011 corporate_economy                      0.249
# … with 93 more rows

$projected
# A tibble: 77 x 4
   sector      year emission_factor_metric emission_factor_value
   <chr>      <dbl> <chr>                                  <dbl>
 1 automotive  2002 projected                              0.228
 2 automotive  2003 projected                              0.226
 3 automotive  2004 projected                              0.224
 4 automotive  2005 projected                              0.222
 5 automotive  2006 projected                              0.220
 6 automotive  2007 projected                              0.218
 7 automotive  2008 projected                              0.216
 8 automotive  2009 projected                              0.214
 9 automotive  2010 projected                              0.212
10 automotive  2011 projected                              0.210
# … with 67 more rows
…
