Using `match_name()` with large loanbooks • r2dii.match
…
You can read and combine all files in one step with
vroom().

matched <- vroom(dir_ls(out))
#> Rows: 26 Columns: 29
#> ── Column specification ────────────────────────────────────────────────────────
#> Delimiter: "\t"
#> chr (19): id_direct_loantaker, name_direct_loantaker, id_ultimate_parent, na...
#> dbl  (5): loan_size_outstanding, loan_size_credit_limit, sector_classificati...
#> lgl  (5): id_intermediate_parent_1, name_intermediate_parent_1, name_project...
#> 
#> ℹ Use `spec()` to retrieve the full column specification for this data.
#> ℹ Specify the column types or set `show_col_types = FALSE` to quiet this message.
matched
#> # A tibble: 26 × 29
#>    id_direct_loantaker name_direct_loantaker          id_intermediate_parent_1
#>    <chr>               <chr>                          <lgl>                   
#>  1 C26                 large oil and gas company four NA                      
#>  2 C26                 large oil and gas company four NA                      
#>  3 C1                  large automotive company five  NA                      
#>  4 C1                  large automotive company five  NA                      
#>  5 C35                 large steel company five       NA                      
#>  6 C35                 large steel company five       NA                      
#>  7 C5                  large automotive company two   NA                      
#>  8 C5                  large automotive company two   NA                      
#>  9 C30                 large power company five       NA                      
#> 10 C30                 large power company five       NA                      
#> # ℹ 16 more rows
#> # ℹ 26 more variables: name_intermediate_parent_1 <lgl>,
#> #   id_ultimate_parent <chr>, name_ultimate_parent <chr>,
#> #   loan_size_outstanding <dbl>, loan_size_outstanding_currency <chr>,
#> #   loan_size_credit_limit <dbl>, loan_size_credit_limit_currency <chr>,
#> #   sector_classification_system <chr>, sector_classification_input_type <chr>,
#> #   sector_classification_direct_loantaker <dbl>, fi_type <chr>, …
…
