Introduction to r2dii.match • r2dii.match
…
Format input data loanbook and asset-level data (ald)

We need two datasets: a “loanbook” and an “asset-level dataset” (ald). These should be formatted like: loanbook_demo and ald_demo (from the r2dii.dataraw package).

(A note on sector classification: Matches are preferred when the sector from the loanbook matches the sector from the ald. The loanbook sector is determined internally using the sector_classification_system and sector_classification_direct_loantaker columns. Currently, sector_classification_system must be either ISIC or NACE. If you would like to use a different classification system, please raise an issue in r2dii.dataraw and we can incorporate it.)

loanbook_demo
#> # A tibble: 320 x 19
#>    id_loan id_direct_loant… name_direct_loa… id_intermediate… name_intermedia…
#>    <chr>   <chr>            <chr>            <chr>            <chr>           
#>  1 L1      C294             Yuamen Xinneng … <NA>             <NA>            
#>  2 L2      C293             Yuamen Changyua… <NA>             <NA>            
#>  3 L3      C292             Yuama Ethanol L… IP5              Yuama Inc.      
#>  4 L4      C299             Yudaksel Holdin… <NA>             <NA>            
#>  5 L5      C305             Yukon Energy Co… <NA>             <NA>            
#>  6 L6      C304             Yukon Developme… <NA>             <NA>            
#>  7 L7      C227             Yaugoa-Zapadnay… <NA>             <NA>            
#>  8 L8      C303             Yueyang City Co… <NA>             <NA>            
#>  9 L9      C301             Yuedxiu Corp One IP10             Yuedxiu Group   
#> 10 L10     C302             Yuexi County AA… <NA>             <NA>            
#> # … with 310 more rows, and 14 more variables: id_ultimate_parent <chr>,
#> #   name_ultimate_parent <chr>, loan_size_outstanding <dbl>,
#> #   loan_size_outstanding_currency <chr>, loan_size_credit_limit <dbl>,
#> #   loan_size_credit_limit_currency <chr>, sector_classification_system <chr>,
#> #   sector_classification_input_type <chr>,
#> #   sector_classification_direct_loantaker <dbl>, fi_type <chr>,
#> #   flag_project_finance_loan <chr>, name_project <lgl>,
#> #   lei_direct_loantaker <lgl>, isin_direct_loantaker <lgl>

ald_demo
#> # A tibble: 17,368 x 13
#>    name_company sector technology production_unit  year production
#>    <chr>        <chr>  <chr>      <chr>           <dbl>      <dbl>
#>  1 aba hydropo… power  hydrocap   MW               2013    133340.
#>  2 aba hydropo… power  hydrocap   MW               2014    131582.
#>  3 aba hydropo… power  hydrocap   MW               2015    129824.
#>  4 aba hydropo… power  hydrocap   MW               2016    128065.
#>  5 aba hydropo… power  hydrocap   MW               2017    126307.
#>  6 aba hydropo… power  hydrocap   MW               2018    124549.
#>  7 aba hydropo… power  hydrocap   MW               2019    122790.
#>  8 aba hydropo… power  hydrocap   MW               2020    121032.
#>  9 aba hydropo… power  hydrocap   MW               2021    119274.
#> 10 aba hydropo… power  hydrocap   MW               2022    117515.
#> # … with 17,358 more rows, and 7 more variables: emission_factor <dbl>,
#> #   country_of_domicile <chr>, plant_location <chr>, number_of_assets <dbl>,
#> #   is_ultimate_owner <lgl>, is_ultimate_listed_owner <lgl>,
#> #   ald_timestamp <chr>
…
Remove special characters.

Replace language specific characters.

Abbreviate certain names to reduce their importance in the matching.

Removing corporate suffixes when necessary.

Spell out numbers to increase their importance.

The similarity is then scored between the internally-transformed names of the loanbook against the ald. (For more information on the scoring algorithm used, see: stringdist::stringsim()).

match_name(your_loanbook, your_ald)
#> # A tibble: 502 x 27
#>    id_loan id_direct_loant… name_direct_loa… id_intermediate… name_intermedia…
#>    <chr>   <chr>            <chr>            <chr>            <chr>           
#>  1 L170    C203             Tesla Inc        <NA>             <NA>            
#>  2 L180    C217             Weichai Power C… <NA>             <NA>            
#>  3 L181    C218             Wheego           <NA>             <NA>            
#>  4 L195    C313             Zhengzhou Yuton… <NA>             <NA>            
#>  5 L174    C211             Tvr              <NA>             <NA>            
#>  6 L198    C317             Ziyang Nanjun    <NA>             <NA>            
#>  7 L193    C310             Zamyad           <NA>             <NA>            
#>  8 L165    C195             Sunwin Bus       <NA>             <NA>            
#>  9 L154    C171             Shandong Tangju… <NA>             <NA>            
#> 10 L164    C193             Subaru Corp      <NA>             <NA>            
#> # … with 492 more rows, and 22 more variables: id_ultimate_parent <chr>,
#> #   name_ultimate_parent <chr>, loan_size_outstanding <dbl>,
#> #   loan_size_outstanding_currency <chr>, loan_size_credit_limit <dbl>,
#> #   loan_size_credit_limit_currency <chr>, sector_classification_system <chr>,
#> #   sector_classification_input_type <chr>,
#> #   sector_classification_direct_loantaker <dbl>, fi_type <chr>,
#> #   flag_project_finance_loan <chr>, name_project <lgl>,
#> #   lei_direct_loantaker <lgl>, isin_direct_loantaker <lgl>, id_2dii <chr>,
#> #   level <chr>, sector <chr>, sector_ald <chr>, name <chr>, name_ald <chr>,
…
Prioritize validated matches by level

The validated dataset may have multiple matches per loan. Consider the case where a loan is given to “Acme Power USA”, a subsidiary of “Acme Power Co.”. There may be both “Acme Power USA” and “Acme Power Co.” in the ald, and so there could be two valid matches for this loan. To get the best match only, use prioritize() – it picks rows where score is 2 and level per loan is of highest priority():

# Pretend we validated the matched dataset
valid_matches <- matched

some_interesting_columns <- vars(id_2dii, level, score)

valid_matches %>% 
  prioritize() %>% 
  select(!!! some_interesting_columns)
#> # A tibble: 267 x 3
#>    id_2dii level            score
#>    <chr>   <chr>            <dbl>
#>  1 DL167   direct_loantaker     1
#>  2 DL168   direct_loantaker     1
#>  3 DL169   direct_loantaker     1
#>  4 DL170   direct_loantaker     1
#>  5 DL172   direct_loantaker     1
#>  6 DL175   direct_loantaker     1
#>  7 DL177   direct_loantaker     1
#>  8 DL179   direct_loantaker     1
#>  9 DL181   direct_loantaker     1
#> 10 DL183   direct_loantaker     1
#> # … with 257 more rows

By default, highest priority refers to the most granular match (direct_loantaker). The default priority is set internally via prioritize_levels().

prioritize_level(matched)
#> [1] "direct_loantaker"      "intermediate_parent_1" "ultimate_parent"

You may use a different priority. One way to do that is to pass a function to priority. For example, use rev to reverse the default priority.

matched %>% 
  prioritize(priority = rev) %>% 
  select(!!! some_interesting_columns)
#> # A tibble: 267 x 3
#>    id_2dii level           score
#>    <chr>   <chr>           <dbl>
#>  1 UP23    ultimate_parent     1
#>  2 UP25    ultimate_parent     1
#>  3 UP36    ultimate_parent     1
#>  4 UP52    ultimate_parent     1
#>  5 UP53    ultimate_parent     1
#>  6 UP58    ultimate_parent     1
#>  7 UP79    ultimate_parent     1
#>  8 UP80    ultimate_parent     1
#>  9 UP89    ultimate_parent     1
#> 10 UP94    ultimate_parent     1
#> # … with 257 more rows
…
